<?xml version="1.0" encoding="UTF-8" standalone="no"?>
<!-- Created with Inkscape (http://www.inkscape.org/) -->

<svg
   xmlns:dc="http://purl.org/dc/elements/1.1/"
   xmlns:cc="http://creativecommons.org/ns#"
   xmlns:rdf="http://www.w3.org/1999/02/22-rdf-syntax-ns#"
   xmlns:svg="http://www.w3.org/2000/svg"
   xmlns="http://www.w3.org/2000/svg"
   xmlns:sodipodi="http://sodipodi.sourceforge.net/DTD/sodipodi-0.dtd"
   xmlns:inkscape="http://www.inkscape.org/namespaces/inkscape"
   width="1505.66"
   height="1900.7296"
   id="svg2"
   version="1.1"
   inkscape:version="0.48.2 r9819"
   sodipodi:docname="git-scheme-for-relearn.svg"
   inkscape:export-filename="/Users/loraine/Dropbox/CHEATSHEETS/git-scheme.png"
   inkscape:export-xdpi="72"
   inkscape:export-ydpi="72">
  <defs
     id="defs4">
    <marker
       inkscape:stockid="TriangleOutL"
       orient="auto"
       refY="0"
       refX="0"
       id="TriangleOutL"
       style="overflow:visible">
      <path
         id="path4449"
         d="m 5.77,0 -8.65,5 0,-10 8.65,5 z"
         style="fill-rule:evenodd;stroke:#000000;stroke-width:1pt;marker-start:none"
         transform="scale(0.8,0.8)"
         inkscape:connector-curvature="0" />
    </marker>
    <marker
       inkscape:stockid="Arrow2Lend"
       orient="auto"
       refY="0"
       refX="0"
       id="Arrow2Lend"
       style="overflow:visible">
      <path
         id="path4327"
         style="font-size:12px;fill-rule:evenodd;stroke-width:0.625;stroke-linejoin:round"
         d="M 8.7185878,4.0337352 -2.2072895,0.01601326 8.7185884,-4.0017078 c -1.7454984,2.3720609 -1.7354408,5.6174519 -6e-7,8.035443 z"
         transform="matrix(-1.1,0,0,-1.1,-1.1,0)"
         inkscape:connector-curvature="0" />
    </marker>
    <marker
       inkscape:stockid="Arrow1Lend"
       orient="auto"
       refY="0"
       refX="0"
       id="Arrow1Lend"
       style="overflow:visible">
      <path
         id="path4309"
         d="M 0,0 5,-5 -12.5,0 5,5 0,0 z"
         style="fill-rule:evenodd;stroke:#000000;stroke-width:1pt;marker-start:none"
         transform="matrix(-0.8,0,0,-0.8,-10,0)"
         inkscape:connector-curvature="0" />
    </marker>
  </defs>
  <sodipodi:namedview
     id="base"
     pagecolor="#ffffff"
     bordercolor="#666666"
     borderopacity="1.0"
     inkscape:pageopacity="0.0"
     inkscape:pageshadow="2"
     inkscape:zoom="0.35"
     inkscape:cx="1079.8735"
     inkscape:cy="1093.5628"
     inkscape:document-units="px"
     inkscape:current-layer="layer1"
     showgrid="false"
     inkscape:window-width="1366"
     inkscape:window-height="724"
     inkscape:window-x="-4"
     inkscape:window-y="0"
     inkscape:window-maximized="0"
     showguides="true"
     inkscape:guide-bbox="true"
     fit-margin-top="50"
     fit-margin-left="50"
     fit-margin-right="50"
     fit-margin-bottom="50" />
  <metadata
     id="metadata7">
    <rdf:RDF>
      <cc:Work
         rdf:about="">
        <dc:format>image/svg+xml</dc:format>
        <dc:type
           rdf:resource="http://purl.org/dc/dcmitype/StillImage" />
        <dc:title />
      </cc:Work>
    </rdf:RDF>
  </metadata>
  <g
     inkscape:label="Calque 1"
     inkscape:groupmode="layer"
     id="layer1"
     transform="translate(-506.2039,930.84673)">
    <flowRoot
       xml:space="preserve"
       id="flowRoot2993"
       style="font-size:40px;font-style:normal;font-weight:normal;text-align:center;line-height:125%;letter-spacing:0px;word-spacing:0px;text-anchor:middle;fill:#000000;fill-opacity:1;stroke:none;font-family:Sans"
       transform="translate(813.15562,-731.82467)"><flowRegion
         id="flowRegion2995"><rect
           id="rect2997"
           width="660"
           height="245.71428"
           x="77.14286"
           y="83.790756"
           style="text-align:center;text-anchor:middle" /></flowRegion><flowPara
         id="flowPara2999"
         style="font-style:normal;font-variant:normal;font-weight:normal;font-stretch:normal;text-align:center;text-anchor:middle;fill:#0000ff;font-family:OSP_Le-patin-helvete;-inkscape-font-specification:OSP_Le-patin-helvete">THE GREAT GIT SCHEME</flowPara></flowRoot>    <flowRoot
       transform="translate(812.63532,-471.88992)"
       style="font-size:40px;font-style:normal;font-weight:normal;text-align:center;line-height:125%;letter-spacing:0px;word-spacing:0px;text-anchor:middle;fill:#000000;fill-opacity:1;stroke:none;font-family:Sans"
       id="flowRoot3497"
       xml:space="preserve"><flowRegion
         id="flowRegion3499"><rect
           y="83.790756"
           x="77.14286"
           height="245.71428"
           width="660"
           id="rect3501"
           style="text-align:center;text-anchor:middle" /></flowRegion><flowPara
         style="font-style:normal;font-variant:normal;font-weight:normal;font-stretch:normal;text-align:center;text-anchor:middle;font-family:OSP_Le-patin-helvete;-inkscape-font-specification:OSP_Le-patin-helvete"
         id="flowPara3503">THE GIT SERVER</flowPara></flowRoot>    <flowRoot
       xml:space="preserve"
       id="flowRoot3505"
       style="font-size:40px;font-style:normal;font-weight:normal;text-align:center;line-height:125%;letter-spacing:0px;word-spacing:0px;text-anchor:middle;fill:#000000;fill-opacity:1;stroke:none;font-family:Sans"
       transform="translate(918.92992,-105.14662)"><flowRegion
         id="flowRegion3507"><rect
           id="rect3509"
           width="100.24513"
           height="111.87672"
           x="77.14286"
           y="83.790756"
           style="text-align:center;text-anchor:middle" /></flowRegion><flowPara
         id="flowPara3511"
         style="font-size:20px;font-style:normal;font-variant:normal;font-weight:normal;font-stretch:normal;text-align:center;text-anchor:middle;fill:#0000ff;font-family:OSP_Le-patin-helvete;-inkscape-font-specification:OSP_Le-patin-helvete">1.</flowPara><flowPara
         style="font-size:20px;font-style:normal;font-variant:normal;font-weight:normal;font-stretch:normal;text-align:center;text-anchor:middle;fill:#0000ff;font-family:OSP_Le-patin-helvete;-inkscape-font-specification:OSP_Le-patin-helvete"
         id="flowPara5331">GIT</flowPara><flowPara
         style="font-size:20px;font-style:normal;font-variant:normal;font-weight:normal;font-stretch:normal;text-align:center;text-anchor:middle;fill:#0000ff;font-family:OSP_Le-patin-helvete;-inkscape-font-specification:OSP_Le-patin-helvete"
         id="flowPara5313">CLONE</flowPara><flowPara
         style="font-size:20px;font-style:normal;font-variant:normal;font-weight:normal;font-stretch:normal;text-align:center;text-anchor:middle;fill:#0000ff;font-family:OSP_Le-patin-helvete;-inkscape-font-specification:OSP_Le-patin-helvete"
         id="flowPara5852" /></flowRoot>    <flowRoot
       transform="translate(1240.6775,-67.636822)"
       style="font-size:40px;font-style:normal;font-weight:normal;text-align:center;line-height:125%;letter-spacing:0px;word-spacing:0px;text-anchor:middle;fill:#000000;fill-opacity:1;stroke:none;font-family:Sans"
       id="flowRoot3513"
       xml:space="preserve"><flowRegion
         id="flowRegion3515"><rect
           y="83.790756"
           x="77.14286"
           height="114.28571"
           width="122.85716"
           id="rect3517"
           style="text-align:center;text-anchor:middle" /></flowRegion><flowPara
         style="font-size:20px;font-style:normal;font-variant:normal;font-weight:normal;font-stretch:normal;text-align:center;text-anchor:middle;fill:#0000ff;font-family:OSP_Le-patin-helvete;-inkscape-font-specification:OSP_Le-patin-helvete"
         id="flowPara3519">4.</flowPara><flowPara
         style="font-size:20px;font-style:normal;font-variant:normal;font-weight:normal;font-stretch:normal;text-align:center;text-anchor:middle;fill:#0000ff;font-family:OSP_Le-patin-helvete;-inkscape-font-specification:OSP_Le-patin-helvete"
         id="flowPara5619">GIT</flowPara><flowPara
         style="font-size:20px;font-style:normal;font-variant:normal;font-weight:normal;font-stretch:normal;text-align:center;text-anchor:middle;fill:#0000ff;font-family:OSP_Le-patin-helvete;-inkscape-font-specification:OSP_Le-patin-helvete"
         id="flowPara5315">PUSH</flowPara></flowRoot>    <flowRoot
       xml:space="preserve"
       id="flowRoot3521"
       style="font-size:40px;font-style:normal;font-weight:normal;text-align:center;line-height:125%;letter-spacing:0px;word-spacing:0px;text-anchor:middle;fill:#000000;fill-opacity:1;stroke:none;font-family:Sans"
       transform="translate(805.30372,29.824354)"><flowRegion
         id="flowRegion3523"><rect
           id="rect3525"
           width="660"
           height="245.71428"
           x="77.14286"
           y="83.790756"
           style="text-align:center;text-anchor:middle" /></flowRegion><flowPara
         id="flowPara3527"
         style="font-style:normal;font-variant:normal;font-weight:normal;font-stretch:normal;text-align:center;text-anchor:middle;font-family:OSP_Le-patin-helvete;-inkscape-font-specification:OSP_Le-patin-helvete">YOUR</flowPara><flowPara
         style="font-style:normal;font-variant:normal;font-weight:normal;font-stretch:normal;text-align:center;text-anchor:middle;font-family:OSP_Le-patin-helvete;-inkscape-font-specification:OSP_Le-patin-helvete"
         id="flowPara3529">COMPUTER</flowPara></flowRoot>    <path
       style="fill:none;stroke:#000000;stroke-width:2;stroke-linecap:butt;stroke-linejoin:miter;stroke-miterlimit:4;stroke-opacity:1;stroke-dasharray:16, 8;stroke-dashoffset:0;marker-end:url(#TriangleOutL)"
       d="m 1167.8698,-58.714092 c -58.1344,24.913561 -61.4156,112.038886 -8.5715,143.22842"
       id="path3533"
       inkscape:connector-curvature="0"
       sodipodi:nodetypes="cc" />
    <flowRoot
       transform="translate(1031.722,-417.88991)"
       style="font-size:40px;font-style:normal;font-weight:normal;text-align:center;line-height:125%;letter-spacing:0px;word-spacing:0px;text-anchor:middle;fill:#000000;fill-opacity:1;stroke:none;font-family:Sans"
       id="flowRoot5317"
       xml:space="preserve"><flowRegion
         id="flowRegion5319"><rect
           style="text-align:center;text-anchor:middle"
           y="83.790756"
           x="77.14286"
           height="108.57143"
           width="221.4286"
           id="rect5321" /></flowRegion><flowPara
         style="font-size:20px;font-style:normal;font-variant:normal;font-weight:normal;font-stretch:normal;text-align:center;text-anchor:middle;font-family:OSP_Le-patin-helvete;-inkscape-font-specification:OSP_Le-patin-helvete"
         id="flowPara5906">SHARED DATABASE OF REPOSITORIES</flowPara><flowPara
         style="font-size:20px;font-style:normal;font-variant:normal;font-weight:normal;font-stretch:normal;text-align:center;text-anchor:middle;font-family:OSP_Le-patin-helvete;-inkscape-font-specification:OSP_Le-patin-helvete"
         id="flowPara5910">(files + their history)</flowPara></flowRoot>    <flowRoot
       xml:space="preserve"
       id="flowRoot5333"
       style="font-size:40px;font-style:normal;font-weight:normal;text-align:center;line-height:125%;letter-spacing:0px;word-spacing:0px;text-anchor:middle;fill:#000000;fill-opacity:1;stroke:none;font-family:Sans"
       transform="translate(1006.5391,-217.60708)"><flowRegion
         id="flowRegion5335"><rect
           id="rect5337"
           width="258.47504"
           height="50.57431"
           x="77.14286"
           y="83.790756"
           style="text-align:center;text-anchor:middle" /></flowRegion><flowPara
         style="font-size:20px;font-style:normal;font-variant:normal;font-weight:normal;font-stretch:normal;text-align:center;text-anchor:middle;fill:#0000ff;font-family:OSP_Le-patin-helvete;-inkscape-font-specification:OSP_Le-patin-helvete"
         id="flowPara5339">GIT REPOSITORY</flowPara><flowPara
         style="font-size:20px;font-style:normal;font-variant:normal;font-weight:normal;font-stretch:normal;text-align:center;text-anchor:middle;fill:#0000ff;font-family:OSP_Le-patin-helvete;-inkscape-font-specification:OSP_Le-patin-helvete"
         id="flowPara5754">= version database</flowPara></flowRoot>    <flowRoot
       transform="translate(679.50352,-256.88852)"
       style="font-size:40px;font-style:normal;font-weight:normal;text-align:start;line-height:125%;letter-spacing:0px;word-spacing:0px;text-anchor:start;fill:#000000;fill-opacity:1;stroke:none;font-family:Sans"
       id="flowRoot5341"
       xml:space="preserve"><flowRegion
         id="flowRegion5343"><rect
           style="text-align:start;text-anchor:start"
           y="83.790756"
           x="77.14286"
           height="223.0356"
           width="221.61931"
           id="rect5345" /></flowRegion><flowPara
         style="font-size:20px;font-style:normal;font-variant:normal;font-weight:normal;font-stretch:normal;text-align:start;text-anchor:start;font-family:OSP_Le-patin-helvete;-inkscape-font-specification:OSP_Le-patin-helvete"
         id="flowPara5490"><flowSpan
           style="font-style:oblique;-inkscape-font-specification:OSP_Le-patin-helvete Oblique"
           id="flowSpan5888">git clone </flowSpan></flowPara><flowPara
         style="font-size:20px;font-style:normal;font-variant:normal;font-weight:normal;font-stretch:normal;text-align:start;text-anchor:start;font-family:OSP_Le-patin-helvete;-inkscape-font-specification:OSP_Le-patin-helvete"
         id="flowPara5856">= downloads a folder with a copy of the <flowSpan
   style="fill:#0000ff"
   id="flowSpan5600">file </flowSpan></flowPara><flowPara
         style="font-size:20px;font-style:normal;font-variant:normal;font-weight:normal;font-stretch:normal;text-align:start;text-anchor:start;font-family:OSP_Le-patin-helvete;-inkscape-font-specification:OSP_Le-patin-helvete"
         id="flowPara5848">+ a history of this file (= local repository or version database) </flowPara><flowPara
         style="font-size:20px;font-style:normal;font-variant:normal;font-weight:normal;font-stretch:normal;text-align:start;text-anchor:start;font-family:OSP_Le-patin-helvete;-inkscape-font-specification:OSP_Le-patin-helvete"
         id="flowPara5850">in the folder (hidden).</flowPara></flowRoot>    <g
       id="g5998"
       transform="translate(677.35052,-250.51783)">
      <path
         style="fill:none;stroke:#000000;stroke-width:2;stroke-linecap:butt;stroke-linejoin:miter;stroke-miterlimit:4;stroke-opacity:1;stroke-dasharray:16, 8;stroke-dashoffset:0;marker-end:url(#TriangleOutL)"
         d="m 320.19543,-142.02812 -25.97375,-70.94479"
         id="path5377"
         inkscape:connector-curvature="0"
         sodipodi:nodetypes="cc" />
      <path
         style="fill:none;stroke:#000000;stroke-width:2;stroke-linecap:butt;stroke-linejoin:miter;stroke-miterlimit:4;stroke-opacity:1;stroke-dasharray:16, 8;stroke-dashoffset:0;marker-end:url(#TriangleOutL)"
         d="m 790.26517,-113.13214 60.47472,-45.28363"
         id="path5381"
         inkscape:connector-curvature="0"
         sodipodi:nodetypes="cc" />
      <path
         sodipodi:nodetypes="cc"
         inkscape:connector-curvature="0"
         id="path5383"
         d="M 294.09702,-113.13214 233.6223,-158.41577"
         style="fill:none;stroke:#000000;stroke-width:2;stroke-linecap:butt;stroke-linejoin:miter;stroke-miterlimit:4;stroke-opacity:1;stroke-dasharray:16, 8;stroke-dashoffset:0;marker-end:url(#TriangleOutL)" />
      <path
         sodipodi:nodetypes="cc"
         inkscape:connector-curvature="0"
         id="path5413"
         d="m 762.42268,-142.02812 25.97375,-70.94479"
         style="fill:none;stroke:#000000;stroke-width:2;stroke-linecap:butt;stroke-linejoin:miter;stroke-miterlimit:4;stroke-opacity:1;stroke-dasharray:16, 8;stroke-dashoffset:0;marker-end:url(#TriangleOutL)" />
    </g>
    <path
       sodipodi:nodetypes="cc"
       inkscape:connector-curvature="0"
       id="path5415"
       d="m 1260.2393,89.206848 c 58.1344,-24.913564 61.4155,-112.038889 8.5715,-143.22842"
       style="fill:none;stroke:#000000;stroke-width:2;stroke-linecap:butt;stroke-linejoin:miter;stroke-miterlimit:4;stroke-opacity:1;stroke-dasharray:16, 8;stroke-dashoffset:0;marker-end:url(#TriangleOutL)" />
    <flowRoot
       transform="translate(1389.0012,-99.40404)"
       style="font-size:40px;font-style:normal;font-weight:normal;text-align:start;line-height:125%;letter-spacing:0px;word-spacing:0px;text-anchor:start;fill:#000000;fill-opacity:1;stroke:none;font-family:Sans"
       id="flowRoot5417"
       xml:space="preserve"><flowRegion
         id="flowRegion5419"><rect
           style="text-align:start;text-anchor:start"
           y="83.790756"
           x="77.14286"
           height="154.62003"
           width="181.70341"
           id="rect5421" /></flowRegion><flowPara
         style="font-size:20px;font-style:normal;font-variant:normal;font-weight:normal;font-stretch:normal;text-align:start;text-anchor:start;font-family:OSP_Le-patin-helvete;-inkscape-font-specification:OSP_Le-patin-helvete"
         id="flowPara5425"><flowSpan
           style="font-style:oblique;-inkscape-font-specification:OSP_Le-patin-helvete Oblique"
           id="flowSpan5890">git push </flowSpan></flowPara><flowPara
         style="font-size:20px;font-style:normal;font-variant:normal;font-weight:normal;font-stretch:normal;text-align:start;text-anchor:start;font-family:OSP_Le-patin-helvete;-inkscape-font-specification:OSP_Le-patin-helvete"
         id="flowPara5859">= adds your contributions &amp; changes in the history to the repository</flowPara></flowRoot>    <g
       transform="translate(1029.7902,152.11673)"
       id="g5429">
      <path
         style="opacity:0.98000004;fill:#ffffff;fill-opacity:1;stroke:#0000ff;stroke-width:2;stroke-miterlimit:4;stroke-opacity:1;stroke-dashoffset:0"
         d="m 197.90348,329.81597 0,23.94481 -29.88354,0 0,-36.02033 17.84596,0"
         id="path5431"
         inkscape:connector-curvature="0"
         sodipodi:nodetypes="ccccc" />
      <path
         style="opacity:0.98000004;fill:#ffffff;fill-opacity:1;stroke:#0000ff;stroke-width:2;stroke-linejoin:bevel;stroke-miterlimit:4;stroke-opacity:1;stroke-dasharray:none;stroke-dashoffset:0"
         d="m 185.61917,317.47365 12.54041,12.54042 -12.54041,0 z"
         id="path5433"
         inkscape:connector-curvature="0"
         sodipodi:nodetypes="cccc" />
    </g>
    <g
       id="g5447"
       transform="translate(840.01422,-583.83643)">
      <g
         transform="translate(185.36301,78.04061)"
         id="g5395">
        <path
           style="opacity:0.98000004;fill:#ffffff;fill-opacity:1;stroke:#0000ff;stroke-width:2;stroke-miterlimit:4;stroke-opacity:1;stroke-dashoffset:0"
           d="m 197.90348,329.81597 0,23.94481 -29.88354,0 0,-36.02033 17.84596,0"
           id="path5397"
           inkscape:connector-curvature="0"
           sodipodi:nodetypes="ccccc" />
        <path
           style="opacity:0.98000004;fill:#ffffff;fill-opacity:1;stroke:#0000ff;stroke-width:2;stroke-linejoin:bevel;stroke-miterlimit:4;stroke-opacity:1;stroke-dasharray:none;stroke-dashoffset:0"
           d="m 185.61917,317.47365 12.54041,12.54042 -12.54041,0 z"
           id="path5399"
           inkscape:connector-curvature="0"
           sodipodi:nodetypes="cccc" />
      </g>
      <g
         id="g5435"
         transform="translate(193.43444,69.612039)">
        <path
           sodipodi:nodetypes="ccccc"
           inkscape:connector-curvature="0"
           id="path5437"
           d="m 197.90348,329.81597 0,23.94481 -29.88354,0 0,-36.02033 17.84596,0"
           style="opacity:0.98000004;fill:#ffffff;fill-opacity:1;stroke:#0000ff;stroke-width:2;stroke-miterlimit:4;stroke-opacity:1;stroke-dashoffset:0" />
        <path
           sodipodi:nodetypes="cccc"
           inkscape:connector-curvature="0"
           id="path5439"
           d="m 185.61917,317.47365 12.54041,12.54042 -12.54041,0 z"
           style="opacity:0.98000004;fill:#ffffff;fill-opacity:1;stroke:#0000ff;stroke-width:2;stroke-linejoin:bevel;stroke-miterlimit:4;stroke-opacity:1;stroke-dasharray:none;stroke-dashoffset:0" />
      </g>
    </g>
    <g
       id="g5745"
       transform="translate(804.83272,-565.6042)">
      <g
         transform="translate(0,-14)"
         id="g5464">
        <g
           transform="translate(122.48102,50.04061)"
           id="g5389">
          <path
             style="opacity:0.98000004;fill:#ffffff;fill-opacity:1;stroke:#000000;stroke-width:2;stroke-miterlimit:4;stroke-opacity:1;stroke-dashoffset:0"
             d="m 197.90348,329.81597 0,23.94481 -29.88354,0 0,-36.02033 17.84596,0"
             id="path5391"
             inkscape:connector-curvature="0"
             sodipodi:nodetypes="ccccc" />
          <path
             style="opacity:0.98000004;fill:#ffffff;fill-opacity:1;stroke:#000000;stroke-width:2;stroke-linejoin:bevel;stroke-miterlimit:4;stroke-opacity:1;stroke-dasharray:none;stroke-dashoffset:0"
             d="m 185.61917,317.47365 12.54041,12.54042 -12.54041,0 z"
             id="path5393"
             inkscape:connector-curvature="0"
             sodipodi:nodetypes="cccc" />
        </g>
        <g
           id="g5458"
           transform="translate(130.48102,42.04061)">
          <path
             sodipodi:nodetypes="ccccc"
             inkscape:connector-curvature="0"
             id="path5460"
             d="m 197.90348,329.81597 0,23.94481 -29.88354,0 0,-36.02033 17.84596,0"
             style="opacity:0.98000004;fill:#ffffff;fill-opacity:1;stroke:#000000;stroke-width:2;stroke-miterlimit:4;stroke-opacity:1;stroke-dashoffset:0" />
          <path
             sodipodi:nodetypes="cccc"
             inkscape:connector-curvature="0"
             id="path5462"
             d="m 185.61917,317.47365 12.54041,12.54042 -12.54041,0 z"
             style="opacity:0.98000004;fill:#ffffff;fill-opacity:1;stroke:#000000;stroke-width:2;stroke-linejoin:bevel;stroke-miterlimit:4;stroke-opacity:1;stroke-dasharray:none;stroke-dashoffset:0" />
        </g>
      </g>
    </g>
    <g
       id="g5737"
       transform="translate(876.83272,-565.6042)">
      <g
         id="g5401"
         transform="translate(248.24498,36.04061)">
        <path
           sodipodi:nodetypes="ccccc"
           inkscape:connector-curvature="0"
           id="path5403"
           d="m 197.90348,329.81597 0,23.94481 -29.88354,0 0,-36.02033 17.84596,0"
           style="opacity:0.98000004;fill:#ffffff;fill-opacity:1;stroke:#000000;stroke-width:2;stroke-miterlimit:4;stroke-opacity:1;stroke-dashoffset:0" />
        <path
           sodipodi:nodetypes="cccc"
           inkscape:connector-curvature="0"
           id="path5405"
           d="m 185.61917,317.47365 12.54041,12.54042 -12.54041,0 z"
           style="opacity:0.98000004;fill:#ffffff;fill-opacity:1;stroke:#000000;stroke-width:2;stroke-linejoin:bevel;stroke-miterlimit:4;stroke-opacity:1;stroke-dasharray:none;stroke-dashoffset:0" />
      </g>
      <g
         transform="translate(256.24498,28.04061)"
         id="g5478">
        <path
           style="opacity:0.98000004;fill:#ffffff;fill-opacity:1;stroke:#000000;stroke-width:2;stroke-miterlimit:4;stroke-opacity:1;stroke-dashoffset:0"
           d="m 197.90348,329.81597 0,23.94481 -29.88354,0 0,-36.02033 17.84596,0"
           id="path5480"
           inkscape:connector-curvature="0"
           sodipodi:nodetypes="ccccc" />
        <path
           style="opacity:0.98000004;fill:#ffffff;fill-opacity:1;stroke:#000000;stroke-width:2;stroke-linejoin:bevel;stroke-miterlimit:4;stroke-opacity:1;stroke-dasharray:none;stroke-dashoffset:0"
           d="m 185.61917,317.47365 12.54041,12.54042 -12.54041,0 z"
           id="path5482"
           inkscape:connector-curvature="0"
           sodipodi:nodetypes="cccc" />
      </g>
    </g>
    <g
       id="g5721"
       transform="translate(812.50742,-615.6042)">
      <g
         transform="translate(59.599,4.0406102)"
         id="g5385">
        <path
           style="opacity:0.98000004;fill:#ffffff;fill-opacity:1;stroke:#000000;stroke-width:2;stroke-miterlimit:4;stroke-opacity:1;stroke-dashoffset:0"
           d="m 197.90348,329.81597 0,23.94481 -29.88354,0 0,-36.02033 17.84596,0"
           id="rect5363"
           inkscape:connector-curvature="0"
           sodipodi:nodetypes="ccccc" />
        <path
           style="opacity:0.98000004;fill:#ffffff;fill-opacity:1;stroke:#000000;stroke-width:2;stroke-linejoin:bevel;stroke-miterlimit:4;stroke-opacity:1;stroke-dasharray:none;stroke-dashoffset:0"
           d="m 185.61917,317.47365 12.54041,12.54042 -12.54041,0 z"
           id="rect5371"
           inkscape:connector-curvature="0"
           sodipodi:nodetypes="cccc" />
      </g>
      <g
         id="g5472"
         transform="translate(67.599,-3.9593898)">
        <path
           sodipodi:nodetypes="ccccc"
           inkscape:connector-curvature="0"
           id="path5474"
           d="m 197.90348,329.81597 0,23.94481 -29.88354,0 0,-36.02033 17.84596,0"
           style="opacity:0.98000004;fill:#ffffff;fill-opacity:1;stroke:#000000;stroke-width:2;stroke-miterlimit:4;stroke-opacity:1;stroke-dashoffset:0" />
        <path
           sodipodi:nodetypes="cccc"
           inkscape:connector-curvature="0"
           id="path5476"
           d="m 185.61917,317.47365 12.54041,12.54042 -12.54041,0 z"
           style="opacity:0.98000004;fill:#ffffff;fill-opacity:1;stroke:#000000;stroke-width:2;stroke-linejoin:bevel;stroke-miterlimit:4;stroke-opacity:1;stroke-dasharray:none;stroke-dashoffset:0" />
      </g>
    </g>
    <g
       id="g5729"
       transform="translate(881.65022,-615.6042)">
      <g
         transform="translate(311.12699,4.0406102)"
         id="g5407">
        <path
           style="opacity:0.98000004;fill:#ffffff;fill-opacity:1;stroke:#000000;stroke-width:2;stroke-miterlimit:4;stroke-opacity:1;stroke-dashoffset:0"
           d="m 197.90348,329.81597 0,23.94481 -29.88354,0 0,-36.02033 17.84596,0"
           id="path5409"
           inkscape:connector-curvature="0"
           sodipodi:nodetypes="ccccc" />
        <path
           style="opacity:0.98000004;fill:#ffffff;fill-opacity:1;stroke:#000000;stroke-width:2;stroke-linejoin:bevel;stroke-miterlimit:4;stroke-opacity:1;stroke-dasharray:none;stroke-dashoffset:0"
           d="m 185.61917,317.47365 12.54041,12.54042 -12.54041,0 z"
           id="path5411"
           inkscape:connector-curvature="0"
           sodipodi:nodetypes="cccc" />
      </g>
      <g
         id="g5484"
         transform="translate(319.12699,-3.9593898)">
        <path
           sodipodi:nodetypes="ccccc"
           inkscape:connector-curvature="0"
           id="path5486"
           d="m 197.90348,329.81597 0,23.94481 -29.88354,0 0,-36.02033 17.84596,0"
           style="opacity:0.98000004;fill:#ffffff;fill-opacity:1;stroke:#000000;stroke-width:2;stroke-miterlimit:4;stroke-opacity:1;stroke-dashoffset:0" />
        <path
           sodipodi:nodetypes="cccc"
           inkscape:connector-curvature="0"
           id="path5488"
           d="m 185.61917,317.47365 12.54041,12.54042 -12.54041,0 z"
           style="opacity:0.98000004;fill:#ffffff;fill-opacity:1;stroke:#000000;stroke-width:2;stroke-linejoin:bevel;stroke-miterlimit:4;stroke-opacity:1;stroke-dasharray:none;stroke-dashoffset:0" />
      </g>
    </g>
    <flowRoot
       transform="translate(1229.067,324.20884)"
       style="font-size:40px;font-style:normal;font-weight:normal;text-align:center;line-height:125%;letter-spacing:0px;word-spacing:0px;text-anchor:middle;fill:#000000;fill-opacity:1;stroke:none;font-family:Sans"
       id="flowRoot5492"
       xml:space="preserve"><flowRegion
         id="flowRegion5494"><rect
           style="text-align:center;text-anchor:middle"
           y="83.790756"
           x="77.14286"
           height="95.714279"
           width="104.28574"
           id="rect5496" /></flowRegion><flowPara
         style="font-size:20px;font-style:normal;font-variant:normal;font-weight:normal;font-stretch:normal;text-align:center;text-anchor:middle;fill:#0000ff;font-family:OSP_Le-patin-helvete;-inkscape-font-specification:OSP_Le-patin-helvete"
         id="flowPara5498">2.</flowPara><flowPara
         id="flowPara5500"
         style="font-size:20px;font-style:normal;font-variant:normal;font-weight:normal;font-stretch:normal;text-align:center;text-anchor:middle;fill:#0000ff;font-family:OSP_Le-patin-helvete;-inkscape-font-specification:OSP_Le-patin-helvete">GIT</flowPara><flowPara
         id="flowPara5502"
         style="font-size:20px;font-style:normal;font-variant:normal;font-weight:normal;font-stretch:normal;text-align:center;text-anchor:middle;fill:#0000ff;font-family:OSP_Le-patin-helvete;-inkscape-font-specification:OSP_Le-patin-helvete">ADD</flowPara></flowRoot>    <g
       transform="translate(969.3137,-51.389612)"
       id="g5506">
      <g
         id="g5508"
         transform="translate(185.36301,78.04061)">
        <path
           sodipodi:nodetypes="ccccc"
           inkscape:connector-curvature="0"
           id="path5510"
           d="m 197.90348,329.81597 0,23.94481 -29.88354,0 0,-36.02033 17.84596,0"
           style="opacity:0.98000004;fill:#ffffff;fill-opacity:1;stroke:#0000ff;stroke-width:2;stroke-miterlimit:4;stroke-opacity:1;stroke-dashoffset:0" />
        <path
           sodipodi:nodetypes="cccc"
           inkscape:connector-curvature="0"
           id="path5512"
           d="m 185.61917,317.47365 12.54041,12.54042 -12.54041,0 z"
           style="opacity:0.98000004;fill:#ffffff;fill-opacity:1;stroke:#0000ff;stroke-width:2;stroke-linejoin:bevel;stroke-miterlimit:4;stroke-opacity:1;stroke-dasharray:none;stroke-dashoffset:0" />
      </g>
      <g
         transform="translate(193.43444,69.612039)"
         id="g5514">
        <path
           style="opacity:0.98000004;fill:#ffffff;fill-opacity:1;stroke:#0000ff;stroke-width:2;stroke-miterlimit:4;stroke-opacity:1;stroke-dashoffset:0"
           d="m 197.90348,329.81597 0,23.94481 -29.88354,0 0,-36.02033 17.84596,0"
           id="path5516"
           inkscape:connector-curvature="0"
           sodipodi:nodetypes="ccccc" />
        <path
           style="opacity:0.98000004;fill:#ffffff;fill-opacity:1;stroke:#0000ff;stroke-width:2;stroke-linejoin:bevel;stroke-miterlimit:4;stroke-opacity:1;stroke-dasharray:none;stroke-dashoffset:0"
           d="m 185.61917,317.47365 12.54041,12.54042 -12.54041,0 z"
           id="path5518"
           inkscape:connector-curvature="0"
           sodipodi:nodetypes="cccc" />
      </g>
      <g
         id="g5520"
         transform="translate(201.43444,61.612039)">
        <path
           sodipodi:nodetypes="ccccc"
           inkscape:connector-curvature="0"
           id="path5522"
           d="m 197.90348,329.81597 0,23.94481 -29.88354,0 0,-36.02033 17.84596,0"
           style="opacity:0.98000004;fill:#ffffff;fill-opacity:1;stroke:#0000ff;stroke-width:2;stroke-miterlimit:4;stroke-opacity:1;stroke-dashoffset:0" />
        <path
           sodipodi:nodetypes="cccc"
           inkscape:connector-curvature="0"
           id="path5524"
           d="m 185.61917,317.47365 12.54041,12.54042 -12.54041,0 z"
           style="opacity:0.98000004;fill:#ffffff;fill-opacity:1;stroke:#0000ff;stroke-width:2;stroke-linejoin:bevel;stroke-miterlimit:4;stroke-opacity:1;stroke-dasharray:none;stroke-dashoffset:0" />
      </g>
    </g>
    <flowRoot
       xml:space="preserve"
       id="flowRoot5526"
       style="font-size:40px;font-style:normal;font-weight:normal;text-align:center;line-height:125%;letter-spacing:0px;word-spacing:0px;text-anchor:middle;fill:#000000;fill-opacity:1;stroke:none;font-family:Sans"
       transform="translate(1023.5391,437.27989)"><flowRegion
         id="flowRegion5528"><rect
           id="rect5530"
           width="224.49388"
           height="145.21175"
           x="77.14286"
           y="83.790756"
           style="text-align:center;text-anchor:middle" /></flowRegion><flowPara
         style="font-size:20px;font-style:normal;font-variant:normal;font-weight:normal;font-stretch:normal;text-align:center;text-anchor:middle;font-family:OSP_Le-patin-helvete;-inkscape-font-specification:OSP_Le-patin-helvete"
         id="flowPara5542">MODIFY THE FILE</flowPara></flowRoot>    <g
       transform="translate(841.18682,-140.42518)"
       id="g5564">
      <g
         id="g5566"
         transform="translate(185.36301,78.04061)">
        <path
           sodipodi:nodetypes="ccccc"
           inkscape:connector-curvature="0"
           id="path5568"
           d="m 197.90348,329.81597 0,23.94481 -29.88354,0 0,-36.02033 17.84596,0"
           style="opacity:0.98000004;fill:#ffffff;fill-opacity:1;stroke:#0000ff;stroke-width:2;stroke-miterlimit:4;stroke-opacity:1;stroke-dashoffset:0" />
        <path
           sodipodi:nodetypes="cccc"
           inkscape:connector-curvature="0"
           id="path5570"
           d="m 185.61917,317.47365 12.54041,12.54042 -12.54041,0 z"
           style="opacity:0.98000004;fill:#ffffff;fill-opacity:1;stroke:#0000ff;stroke-width:2;stroke-linejoin:bevel;stroke-miterlimit:4;stroke-opacity:1;stroke-dasharray:none;stroke-dashoffset:0" />
      </g>
      <g
         transform="translate(193.43444,69.612039)"
         id="g5572">
        <path
           style="opacity:0.98000004;fill:#ffffff;fill-opacity:1;stroke:#0000ff;stroke-width:2;stroke-miterlimit:4;stroke-opacity:1;stroke-dashoffset:0"
           d="m 197.90348,329.81597 0,23.94481 -29.88354,0 0,-36.02033 17.84596,0"
           id="path5574"
           inkscape:connector-curvature="0"
           sodipodi:nodetypes="ccccc" />
        <path
           style="opacity:0.98000004;fill:#ffffff;fill-opacity:1;stroke:#0000ff;stroke-width:2;stroke-linejoin:bevel;stroke-miterlimit:4;stroke-opacity:1;stroke-dasharray:none;stroke-dashoffset:0"
           d="m 185.61917,317.47365 12.54041,12.54042 -12.54041,0 z"
           id="path5576"
           inkscape:connector-curvature="0"
           sodipodi:nodetypes="cccc" />
      </g>
    </g>
    <flowRoot
       xml:space="preserve"
       id="flowRoot5578"
       style="font-size:40px;font-style:normal;font-weight:normal;text-align:center;line-height:125%;letter-spacing:0px;word-spacing:0px;text-anchor:middle;fill:#000000;fill-opacity:1;stroke:none;font-family:Sans"
       transform="translate(952.93502,150.03249)"><flowRegion
         id="flowRegion5580"><rect
           id="rect5582"
           width="141.81725"
           height="81.614182"
           x="77.14286"
           y="83.790756"
           style="text-align:center;text-anchor:middle" /></flowRegion><flowPara
         style="font-size:20px;font-style:normal;font-variant:normal;font-weight:normal;font-stretch:normal;text-align:center;text-anchor:middle;font-family:OSP_Le-patin-helvete;-inkscape-font-specification:OSP_Le-patin-helvete"
         id="flowPara5623">the last version of the cloned file</flowPara></flowRoot>    <flowRoot
       xml:space="preserve"
       id="flowRoot5604"
       style="font-size:40px;font-style:normal;font-weight:normal;text-align:start;line-height:125%;letter-spacing:0px;word-spacing:0px;text-anchor:start;fill:#000000;fill-opacity:1;stroke:none;font-family:Sans"
       transform="translate(1349.4228,308.83749)"><flowRegion
         id="flowRegion5606"><rect
           id="rect5608"
           width="172.12184"
           height="228.08635"
           x="77.14286"
           y="83.790756"
           style="text-align:start;text-anchor:start" /></flowRegion><flowPara
         id="flowPara5614"
         style="font-size:20px;font-style:oblique;font-variant:normal;font-weight:normal;font-stretch:normal;text-align:start;text-anchor:start;font-family:OSP_Le-patin-helvete;-inkscape-font-specification:OSP_Le-patin-helvete Oblique">git add</flowPara><flowPara
         style="font-size:20px;font-style:normal;font-variant:normal;font-weight:normal;font-stretch:normal;text-align:start;text-anchor:start;font-family:OSP_Le-patin-helvete;-inkscape-font-specification:OSP_Le-patin-helvete"
         id="flowPara5894">= specifies the files you want to commit to your local version database.</flowPara></flowRoot>    <g
       id="g5631"
       transform="translate(962.2333,-471.96115)">
      <g
         transform="translate(185.36301,78.04061)"
         id="g5633">
        <path
           style="opacity:0.98000004;fill:#ffffff;fill-opacity:1;stroke:#0000ff;stroke-width:2;stroke-miterlimit:4;stroke-opacity:1;stroke-dashoffset:0"
           d="m 197.90348,329.81597 0,23.94481 -29.88354,0 0,-36.02033 17.84596,0"
           id="path5635"
           inkscape:connector-curvature="0"
           sodipodi:nodetypes="ccccc" />
        <path
           style="opacity:0.98000004;fill:#ffffff;fill-opacity:1;stroke:#0000ff;stroke-width:2;stroke-linejoin:bevel;stroke-miterlimit:4;stroke-opacity:1;stroke-dasharray:none;stroke-dashoffset:0"
           d="m 185.61917,317.47365 12.54041,12.54042 -12.54041,0 z"
           id="path5637"
           inkscape:connector-curvature="0"
           sodipodi:nodetypes="cccc" />
      </g>
      <g
         id="g5639"
         transform="translate(193.43444,69.612039)">
        <path
           sodipodi:nodetypes="ccccc"
           inkscape:connector-curvature="0"
           id="path5641"
           d="m 197.90348,329.81597 0,23.94481 -29.88354,0 0,-36.02033 17.84596,0"
           style="opacity:0.98000004;fill:#ffffff;fill-opacity:1;stroke:#0000ff;stroke-width:2;stroke-miterlimit:4;stroke-opacity:1;stroke-dashoffset:0" />
        <path
           sodipodi:nodetypes="cccc"
           inkscape:connector-curvature="0"
           id="path5643"
           d="m 185.61917,317.47365 12.54041,12.54042 -12.54041,0 z"
           style="opacity:0.98000004;fill:#ffffff;fill-opacity:1;stroke:#0000ff;stroke-width:2;stroke-linejoin:bevel;stroke-miterlimit:4;stroke-opacity:1;stroke-dasharray:none;stroke-dashoffset:0" />
      </g>
      <g
         transform="translate(201.43444,61.612039)"
         id="g5645">
        <path
           style="opacity:0.98000004;fill:#ffffff;fill-opacity:1;stroke:#0000ff;stroke-width:2;stroke-miterlimit:4;stroke-opacity:1;stroke-dashoffset:0"
           d="m 197.90348,329.81597 0,23.94481 -29.88354,0 0,-36.02033 17.84596,0"
           id="path5647"
           inkscape:connector-curvature="0"
           sodipodi:nodetypes="ccccc" />
        <path
           style="opacity:0.98000004;fill:#ffffff;fill-opacity:1;stroke:#0000ff;stroke-width:2;stroke-linejoin:bevel;stroke-miterlimit:4;stroke-opacity:1;stroke-dasharray:none;stroke-dashoffset:0"
           d="m 185.61917,317.47365 12.54041,12.54042 -12.54041,0 z"
           id="path5649"
           inkscape:connector-curvature="0"
           sodipodi:nodetypes="cccc" />
      </g>
    </g>
    <flowRoot
       transform="translate(1156.3969,150.03249)"
       style="font-size:40px;font-style:normal;font-weight:normal;text-align:center;line-height:125%;letter-spacing:0px;word-spacing:0px;text-anchor:middle;fill:#000000;fill-opacity:1;stroke:none;font-family:Sans"
       id="flowRoot5653"
       xml:space="preserve"><flowRegion
         id="flowRegion5655"><rect
           style="text-align:center;text-anchor:middle"
           y="83.790756"
           x="77.14286"
           height="128.08121"
           width="194.3452"
           id="rect5657" /></flowRegion><flowPara
         style="font-size:20px;font-style:normal;font-variant:normal;font-weight:normal;font-stretch:normal;text-align:center;text-anchor:middle;font-family:OSP_Le-patin-helvete;-inkscape-font-specification:OSP_Le-patin-helvete"
         id="flowPara5667">+ its history </flowPara><flowPara
         style="font-size:20px;font-style:normal;font-variant:normal;font-weight:normal;font-stretch:normal;text-align:center;text-anchor:middle;font-family:OSP_Le-patin-helvete;-inkscape-font-specification:OSP_Le-patin-helvete"
         id="flowPara5671">or local version database</flowPara></flowRoot>    <path
       sodipodi:nodetypes="cc"
       inkscape:connector-curvature="0"
       id="path5677"
       d="m 1167.8698,-58.714092 c -58.1344,24.913561 -61.4156,112.038886 -8.5715,143.22842"
       style="fill:none;stroke:#000000;stroke-width:2;stroke-linecap:butt;stroke-linejoin:miter;stroke-miterlimit:4;stroke-opacity:1;stroke-dasharray:16, 8;stroke-dashoffset:0;marker-end:url(#TriangleOutL)" />
    <path
       style="fill:none;stroke:#000000;stroke-width:2;stroke-linecap:butt;stroke-linejoin:miter;stroke-miterlimit:4;stroke-opacity:1;stroke-dasharray:16, 8;stroke-dashoffset:0;marker-end:url(#TriangleOutL)"
       d="m 1260.2393,89.206848 c 58.1344,-24.913564 61.4155,-112.038889 8.5715,-143.22842"
       id="path5679"
       inkscape:connector-curvature="0"
       sodipodi:nodetypes="cc" />
    <path
       style="fill:none;stroke:#000000;stroke-width:2;stroke-linecap:butt;stroke-linejoin:miter;stroke-miterlimit:4;stroke-opacity:1;stroke-dasharray:16, 8;stroke-dashoffset:0;marker-end:url(#TriangleOutL)"
       d="m 1171.8697,306.90022 c -58.1343,24.91356 -61.4155,112.03889 -8.5714,143.22842"
       id="path5681"
       inkscape:connector-curvature="0"
       sodipodi:nodetypes="cc" />
    <path
       sodipodi:nodetypes="cc"
       inkscape:connector-curvature="0"
       id="path5683"
       d="m 1254.2393,454.82116 c 58.1344,-24.91356 61.4155,-112.03889 8.5715,-143.22842"
       style="fill:none;stroke:#000000;stroke-width:2;stroke-linecap:butt;stroke-linejoin:miter;stroke-miterlimit:4;stroke-opacity:1;stroke-dasharray:16, 8;stroke-dashoffset:0;marker-end:url(#TriangleOutL)" />
    <flowRoot
       xml:space="preserve"
       id="flowRoot5709"
       style="font-size:40px;font-style:normal;font-weight:normal;text-align:center;line-height:125%;letter-spacing:0px;word-spacing:0px;text-anchor:middle;fill:#000000;fill-opacity:1;stroke:none;font-family:Sans"
       transform="translate(1373.3056,175.66784)"><flowRegion
         id="flowRegion5711"><rect
           id="rect5713"
           width="104.28574"
           height="95.714279"
           x="77.14286"
           y="83.790756"
           style="text-align:center;text-anchor:middle" /></flowRegion><flowPara
         id="flowPara5715"
         style="font-size:20px;font-style:normal;font-variant:normal;font-weight:normal;font-stretch:normal;text-align:center;text-anchor:middle;fill:#0000ff;font-family:OSP_Le-patin-helvete;-inkscape-font-specification:OSP_Le-patin-helvete">3.</flowPara><flowPara
         style="font-size:20px;font-style:normal;font-variant:normal;font-weight:normal;font-stretch:normal;text-align:center;text-anchor:middle;fill:#0000ff;font-family:OSP_Le-patin-helvete;-inkscape-font-specification:OSP_Le-patin-helvete"
         id="flowPara5717">GIT</flowPara><flowPara
         style="font-size:20px;font-style:normal;font-variant:normal;font-weight:normal;font-stretch:normal;text-align:center;text-anchor:middle;fill:#0000ff;font-family:OSP_Le-patin-helvete;-inkscape-font-specification:OSP_Le-patin-helvete"
         id="flowPara5719">COMMIT</flowPara></flowRoot>    <flowRoot
       transform="translate(1505.2756,153.11085)"
       style="font-size:40px;font-style:normal;font-weight:normal;text-align:start;line-height:125%;letter-spacing:0px;word-spacing:0px;text-anchor:start;fill:#000000;fill-opacity:1;stroke:none;font-family:Sans"
       id="flowRoot5756"
       xml:space="preserve"><flowRegion
         id="flowRegion5758"><rect
           style="text-align:start;text-anchor:start"
           y="83.790756"
           x="77.14286"
           height="246.6962"
           width="191.67006"
           id="rect5760" /></flowRegion><flowPara
         style="font-size:20px;font-style:normal;font-variant:normal;font-weight:normal;font-stretch:normal;text-align:start;text-anchor:start;font-family:OSP_Le-patin-helvete;-inkscape-font-specification:OSP_Le-patin-helvete"
         id="flowPara5762"><flowSpan
           style="font-style:oblique;-inkscape-font-specification:OSP_Le-patin-helvete Oblique"
           id="flowSpan5920">git commit </flowSpan></flowPara><flowPara
         style="font-size:20px;font-style:normal;font-variant:normal;font-weight:normal;font-stretch:normal;text-align:start;text-anchor:start;font-family:OSP_Le-patin-helvete;-inkscape-font-specification:OSP_Le-patin-helvete"
         id="flowPara5861">= adds the modifications to the history of the local repository.</flowPara></flowRoot>    <flowRoot
       transform="translate(1023.5391,615.83833)"
       style="font-size:40px;font-style:normal;font-weight:normal;text-align:center;line-height:125%;letter-spacing:0px;word-spacing:0px;text-anchor:middle;fill:#000000;fill-opacity:1;stroke:none;font-family:Sans"
       id="flowRoot5783"
       xml:space="preserve"><flowRegion
         id="flowRegion5785"><rect
           style="text-align:center;text-anchor:middle"
           y="83.790756"
           x="77.14286"
           height="145.21175"
           width="224.49388"
           id="rect5787" /></flowRegion><flowPara
         id="flowPara5789"
         style="font-size:20px;font-style:normal;font-variant:normal;font-weight:normal;font-stretch:normal;text-align:center;text-anchor:middle;font-family:OSP_Le-patin-helvete;-inkscape-font-specification:OSP_Le-patin-helvete">IF YOU CREATE A NEW REPOSITORY</flowPara></flowRoot>    <flowRoot
       transform="translate(1698.6919,660.65484)"
       style="font-size:40px;font-style:normal;font-weight:normal;text-align:start;line-height:125%;letter-spacing:0px;word-spacing:0px;text-anchor:start;fill:#000000;fill-opacity:1;stroke:none;font-family:Sans"
       id="flowRoot5791"
       xml:space="preserve"><flowRegion
         id="flowRegion5793"><rect
           style="text-align:start;text-anchor:start"
           y="83.790756"
           x="77.14286"
           height="228.08635"
           width="172.12184"
           id="rect5795" /></flowRegion><flowPara
         style="font-size:20px;font-style:normal;font-variant:normal;font-weight:normal;font-stretch:normal;text-align:start;text-anchor:start;font-family:OSP_Le-patin-helvete;-inkscape-font-specification:OSP_Le-patin-helvete"
         id="flowPara5797" /></flowRoot>    <flowRoot
       xml:space="preserve"
       id="flowRoot5813"
       style="font-size:40px;font-style:normal;font-weight:normal;text-align:center;line-height:125%;letter-spacing:0px;word-spacing:0px;text-anchor:middle;fill:#000000;fill-opacity:1;stroke:none;font-family:Sans"
       transform="translate(692.63562,9.4016146)"><flowRegion
         id="flowRegion5815"><rect
           id="rect5817"
           width="222.47359"
           height="221.98334"
           x="77.14286"
           y="83.790756"
           style="text-align:center;text-anchor:middle" /></flowRegion><flowPara
         style="font-size:20px;font-style:normal;font-variant:normal;font-weight:normal;font-stretch:normal;text-align:center;text-anchor:middle;fill:#0000ff;font-family:OSP_Le-patin-helvete;-inkscape-font-specification:OSP_Le-patin-helvete"
         id="flowPara5819">OR</flowPara><flowPara
         style="font-size:20px;font-style:normal;font-variant:normal;font-weight:normal;font-stretch:normal;text-align:center;text-anchor:middle;font-family:OSP_Le-patin-helvete;-inkscape-font-specification:OSP_Le-patin-helvete"
         id="flowPara5854">IF YOU ALREADY HAVE THIS REPOSITORY</flowPara><flowPara
         style="font-size:20px;font-style:normal;font-variant:normal;font-weight:normal;font-stretch:normal;text-align:center;text-anchor:middle;fill:#0000ff;font-family:OSP_Le-patin-helvete;-inkscape-font-specification:OSP_Le-patin-helvete"
         id="flowPara5912">1.</flowPara><flowPara
         style="font-size:20px;font-style:normal;font-variant:normal;font-weight:normal;font-stretch:normal;text-align:center;text-anchor:middle;fill:#0000ff;font-family:OSP_Le-patin-helvete;-inkscape-font-specification:OSP_Le-patin-helvete"
         id="flowPara5914">GIT</flowPara><flowPara
         style="font-size:20px;font-style:normal;font-variant:normal;font-weight:normal;font-stretch:normal;text-align:center;text-anchor:middle;fill:#0000ff;font-family:OSP_Le-patin-helvete;-inkscape-font-specification:OSP_Le-patin-helvete"
         id="flowPara5918">PULL</flowPara><flowPara
         style="font-size:20px;font-style:normal;font-variant:normal;font-weight:normal;font-stretch:normal;text-align:center;text-anchor:middle;font-family:OSP_Le-patin-helvete;-inkscape-font-specification:OSP_Le-patin-helvete"
         id="flowPara5916" /></flowRoot>    <flowRoot
       xml:space="preserve"
       id="flowRoot5833"
       style="font-size:40px;font-style:normal;font-weight:normal;text-align:start;line-height:125%;letter-spacing:0px;word-spacing:0px;text-anchor:start;fill:#000000;fill-opacity:1;stroke:none;font-family:Sans"
       transform="translate(565.60534,114.74608)"><flowRegion
         id="flowRegion5835"><rect
           id="rect5837"
           width="148.88834"
           height="271.52292"
           x="77.14286"
           y="83.790756"
           style="text-align:start;text-anchor:start" /></flowRegion><flowPara
         id="flowPara5843"
         style="font-size:20px;font-style:oblique;font-variant:normal;font-weight:normal;font-stretch:normal;text-align:start;text-anchor:start;font-family:OSP_Le-patin-helvete;-inkscape-font-specification:OSP_Le-patin-helvete Oblique">git pull</flowPara><flowPara
         style="font-size:20px;font-style:normal;font-variant:normal;font-weight:normal;font-stretch:normal;text-align:start;text-anchor:start;font-family:OSP_Le-patin-helvete;-inkscape-font-specification:OSP_Le-patin-helvete"
         id="flowPara5896">= update your local history of this repository.</flowPara></flowRoot>    <flowRoot
       xml:space="preserve"
       id="flowRoot5898"
       style="font-size:40px;font-style:normal;font-weight:normal;text-align:center;line-height:125%;letter-spacing:0px;word-spacing:0px;text-anchor:middle;fill:#000000;fill-opacity:1;stroke:none;font-family:Sans"
       transform="translate(1029.5809,-628.60869)"><flowRegion
         id="flowRegion5900"><rect
           id="rect5902"
           width="224.49388"
           height="145.21175"
           x="77.14286"
           y="83.790756"
           style="text-align:center;text-anchor:middle" /></flowRegion><flowPara
         style="font-size:20px;font-style:normal;font-variant:normal;font-weight:normal;font-stretch:normal;text-align:center;text-anchor:middle;font-family:OSP_Le-patin-helvete;-inkscape-font-specification:OSP_Le-patin-helvete"
         id="flowPara5904">IF YOU WANT TO MODIFY A FILE THAT EXISTS ON A GIT SERVER</flowPara></flowRoot>    <flowRoot
       transform="translate(1086.6152,517.51345)"
       style="font-size:40px;font-style:normal;font-weight:normal;text-align:center;line-height:125%;letter-spacing:0px;word-spacing:0px;text-anchor:middle;fill:#000000;fill-opacity:1;stroke:none;font-family:Sans"
       id="flowRoot5922"
       xml:space="preserve"><flowRegion
         id="flowRegion5924"><rect
           style="text-align:center;text-anchor:middle"
           y="83.790756"
           x="77.14286"
           height="111.87672"
           width="100.24513"
           id="rect5926" /></flowRegion><flowPara
         style="font-size:20px;font-style:normal;font-variant:normal;font-weight:normal;font-stretch:normal;text-align:center;text-anchor:middle;fill:#0000ff;font-family:OSP_Le-patin-helvete;-inkscape-font-specification:OSP_Le-patin-helvete"
         id="flowPara5928">1.</flowPara><flowPara
         id="flowPara5930"
         style="font-size:20px;font-style:normal;font-variant:normal;font-weight:normal;font-stretch:normal;text-align:center;text-anchor:middle;fill:#0000ff;font-family:OSP_Le-patin-helvete;-inkscape-font-specification:OSP_Le-patin-helvete">GIT</flowPara><flowPara
         id="flowPara5932"
         style="font-size:20px;font-style:normal;font-variant:normal;font-weight:normal;font-stretch:normal;text-align:center;text-anchor:middle;fill:#0000ff;font-family:OSP_Le-patin-helvete;-inkscape-font-specification:OSP_Le-patin-helvete">INIT</flowPara><flowPara
         id="flowPara5934"
         style="font-size:20px;font-style:normal;font-variant:normal;font-weight:normal;font-stretch:normal;text-align:center;text-anchor:middle;fill:#0000ff;font-family:OSP_Le-patin-helvete;-inkscape-font-specification:OSP_Le-patin-helvete" /></flowRoot>    <path
       sodipodi:nodetypes="cc"
       inkscape:connector-curvature="0"
       id="path5936"
       d="m 1219.5258,-571.09714 -0.01,2.69284"
       style="fill:none;stroke:#000000;stroke-width:2;stroke-linecap:butt;stroke-linejoin:miter;stroke-miterlimit:4;stroke-opacity:1;stroke-dasharray:16, 8;stroke-dashoffset:0;marker-end:url(#TriangleOutL)" />
    <path
       style="fill:none;stroke:#000000;stroke-width:2;stroke-linecap:butt;stroke-linejoin:miter;stroke-miterlimit:4;stroke-opacity:1;stroke-dasharray:16, 8;stroke-dashoffset:0;marker-end:url(#TriangleOutL)"
       d="m 1219.5258,776.39157 -0.01,-2.6928"
       id="path5938"
       inkscape:connector-curvature="0"
       sodipodi:nodetypes="cc" />
    <flowRoot
       transform="translate(1280.2393,504.10362)"
       style="font-size:40px;font-style:normal;font-weight:normal;text-align:start;line-height:125%;letter-spacing:0px;word-spacing:0px;text-anchor:start;fill:#000000;fill-opacity:1;stroke:none;font-family:Sans"
       id="flowRoot5940"
       xml:space="preserve"><flowRegion
         id="flowRegion5942"><rect
           style="text-align:start;text-anchor:start"
           y="83.790756"
           x="77.14286"
           height="228.08635"
           width="172.12184"
           id="rect5944" /></flowRegion><flowPara
         style="font-size:20px;font-style:oblique;font-variant:normal;font-weight:normal;font-stretch:normal;text-align:start;text-anchor:start;font-family:OSP_Le-patin-helvete;-inkscape-font-specification:OSP_Le-patin-helvete Oblique"
         id="flowPara5946">git init</flowPara><flowPara
         id="flowPara5948"
         style="font-size:20px;font-style:normal;font-variant:normal;font-weight:normal;font-stretch:normal;text-align:start;text-anchor:start;font-family:OSP_Le-patin-helvete;-inkscape-font-specification:OSP_Le-patin-helvete">= creates an invisible git file in your project’s folder</flowPara></flowRoot>    <path
       style="opacity:0.15;fill:none;stroke:#000000;stroke-width:3;stroke-linecap:butt;stroke-linejoin:miter;stroke-miterlimit:4;stroke-opacity:1;stroke-dasharray:none"
       d="m 1219.779,-568.15565 c 0,0 -3.8782,76.36793 27.4986,174.49959 22.584,70.63197 44.4128,150.85761 19.0822,214.44565 -31.1286,78.14315 -165.0903,95.040518 -235.1102,254.296968 -62.3805,141.881152 -27.0031,480.697722 278.4068,402.184922 3.7867,-0.9735 43.4751,-28.1811 60.1226,-47.57 27.751,-32.32072 79.1582,-71.55668 63.2248,-111.06451 -23.4542,-58.1559 -159.3772,5.88164 -180.449,-53.17924 -33.1412,-92.8897 196.5896,-133.82907 166.7699,-244.395856 -38.8509,-144.053404 -153.4699,-200.272284 -153.4699,-200.272284"
       id="path6010"
       inkscape:connector-curvature="0"
       sodipodi:nodetypes="cssssaaasc" />
    <path
       style="opacity:0.15;fill:none;stroke:#000000;stroke-width:3;stroke-linecap:butt;stroke-linejoin:miter;stroke-miterlimit:4;stroke-opacity:1;stroke-dasharray:none"
       d="m 1263.9046,-174.70448 c 0,0 -7.2964,24.07024 -77.4657,71.11145 -287.81048,86.772108 -295.20498,255.19755 -250.05508,408.26214 38.56108,130.72757 205.36168,270.76397 368.61398,176.95687"
       id="path6012"
       inkscape:connector-curvature="0"
       sodipodi:nodetypes="ccac" />
    <path
       style="opacity:0.15;fill:none;stroke:#000000;stroke-width:3;stroke-linecap:butt;stroke-linejoin:miter;stroke-miterlimit:4;stroke-opacity:1;stroke-dasharray:none"
       d="m 1222.6703,773.56007 c 0,0 -11.7849,-85.98629 -2.0203,-127.27919 7.2334,-30.5883 41.437,-120.2991 69.7071,-147.9972 39.9756,-39.1666 17.4286,-19.2575 17.4286,-19.2575"
       id="path6014"
       inkscape:connector-curvature="0"
       sodipodi:nodetypes="cssc" />
    <path
       style="fill:none;stroke:#000000;stroke-width:2;stroke-linecap:butt;stroke-linejoin:miter;stroke-miterlimit:4;stroke-opacity:1;stroke-dasharray:16, 8;stroke-dashoffset:0;marker-end:url(#TriangleOutL)"
       d="m 1267.2565,-182.29823 -1.0126,2.49523"
       id="path6016"
       inkscape:connector-curvature="0"
       sodipodi:nodetypes="cc" />
    <path
       sodipodi:nodetypes="cc"
       inkscape:connector-curvature="0"
       id="path6018"
       d="m 1032.9613,72.833028 -1.0125,2.49523"
       style="fill:none;stroke:#000000;stroke-width:2;stroke-linecap:butt;stroke-linejoin:miter;stroke-miterlimit:4;stroke-opacity:1;stroke-dasharray:16, 8;stroke-dashoffset:0;marker-end:url(#TriangleOutL)" />
    <path
       style="fill:none;stroke:#000000;stroke-width:2;stroke-linecap:butt;stroke-linejoin:miter;stroke-miterlimit:4;stroke-opacity:1;stroke-dasharray:16, 8;stroke-dashoffset:0;marker-end:url(#TriangleOutL)"
       d="m 935.44412,301.88857 0.8515,2.55467"
       id="path6020"
       inkscape:connector-curvature="0"
       sodipodi:nodetypes="cc" />
    <path
       sodipodi:nodetypes="cc"
       inkscape:connector-curvature="0"
       id="path6022"
       d="m 1309.1663,475.36943 0.8484,2.55572"
       style="fill:none;stroke:#000000;stroke-width:2;stroke-linecap:butt;stroke-linejoin:miter;stroke-miterlimit:4;stroke-opacity:1;stroke-dasharray:16, 8;stroke-dashoffset:0;marker-end:url(#TriangleOutL)" />
    <path
       style="fill:none;stroke:#000000;stroke-width:2;stroke-linecap:butt;stroke-linejoin:miter;stroke-miterlimit:4;stroke-opacity:1;stroke-dasharray:16, 8;stroke-dashoffset:0;marker-end:url(#TriangleOutL)"
       d="m 1425.277,311.65362 2.6366,-0.54774"
       id="path6024"
       inkscape:connector-curvature="0"
       sodipodi:nodetypes="cc" />
    <path
       sodipodi:nodetypes="cc"
       inkscape:connector-curvature="0"
       id="path6026"
       d="m 1416.6082,21.843124 2.6616,0.40945"
       style="fill:none;stroke:#000000;stroke-width:2;stroke-linecap:butt;stroke-linejoin:miter;stroke-miterlimit:4;stroke-opacity:1;stroke-dasharray:16, 8;stroke-dashoffset:0;marker-end:url(#TriangleOutL)" />
    <flowRoot
       xml:space="preserve"
       id="flowRoot6050"
       style="font-size:40px;font-style:normal;font-weight:normal;text-align:start;line-height:125%;letter-spacing:0px;word-spacing:0px;text-anchor:start;fill:#000000;fill-opacity:1;stroke:none;font-family:Sans"
       transform="translate(1584.147,-467.31272)"><flowRegion
         id="flowRegion6052"><rect
           id="rect6054"
           width="220.02974"
           height="385.69479"
           x="77.14286"
           y="83.790756"
           style="text-align:start;text-anchor:start" /></flowRegion><flowPara
         style="font-size:20px;font-style:normal;font-variant:normal;font-weight:normal;font-stretch:normal;text-align:start;text-anchor:start;font-family:OSP_Le-patin-helvete;-inkscape-font-specification:OSP_Le-patin-helvete"
         id="flowPara6137">If there is a conflict, git might refuse your commit push. </flowPara><flowPara
         style="font-size:20px;font-style:normal;font-variant:normal;font-weight:normal;font-stretch:normal;text-align:start;text-anchor:start;font-family:OSP_Le-patin-helvete;-inkscape-font-specification:OSP_Le-patin-helvete"
         id="flowPara3279">A conflict happens when several persons modify the same repository: the different versions must be merged. </flowPara><flowPara
         style="font-size:20px;font-style:normal;font-variant:normal;font-weight:normal;font-stretch:normal;text-align:start;text-anchor:start;font-family:OSP_Le-patin-helvete;-inkscape-font-specification:OSP_Le-patin-helvete"
         id="flowPara3269">Git usually does it alone, and you just have to first pull again to be able to push. (see the other side of the scheme).</flowPara></flowRoot>    <path
       transform="matrix(0.22049488,0,0,0.09135326,1208.1913,-79.962471)"
       d="m 1038.4368,661.88417 -71.48079,20.67781 1.97825,74.38526 -65.166,-35.92316 -51.19948,53.99717 -20.67782,-71.48083 -74.38526,1.97825 35.92316,-65.166 -53.99717,-51.19948 71.48083,-20.67782 -1.97825,-74.38526 65.166,35.92316 51.19949,-53.99717 20.67781,71.48084 74.38523,-1.97826 -35.92313,65.166 z"
       inkscape:randomized="0"
       inkscape:rounded="0"
       inkscape:flatsided="false"
       sodipodi:arg2="0.6313084"
       sodipodi:arg1="0.23860932"
       sodipodi:r2="96.650558"
       sodipodi:r1="153.86185"
       sodipodi:cy="625.51868"
       sodipodi:cx="888.93427"
       sodipodi:sides="8"
       id="path6065"
       style="fill:#0000ff;stroke:#0000ff;stroke-width:2.99924159;stroke-linejoin:bevel;stroke-miterlimit:4;stroke-opacity:1;stroke-dasharray:none;stroke-dashoffset:0"
       sodipodi:type="star" />
    <path
       sodipodi:type="star"
       style="fill:#0000ff;stroke:#0000ff;stroke-width:2.99924159;stroke-linejoin:bevel;stroke-miterlimit:4;stroke-opacity:1;stroke-dasharray:none;stroke-dashoffset:0"
       id="path6067"
       sodipodi:sides="8"
       sodipodi:cx="888.93427"
       sodipodi:cy="625.51868"
       sodipodi:r1="153.86185"
       sodipodi:r2="96.650558"
       sodipodi:arg1="0.23860932"
       sodipodi:arg2="0.6313084"
       inkscape:flatsided="false"
       inkscape:rounded="0"
       inkscape:randomized="0"
       d="m 1038.4368,661.88417 -71.48079,20.67781 1.97825,74.38526 -65.166,-35.92316 -51.19948,53.99717 -20.67782,-71.48083 -74.38526,1.97825 35.92316,-65.166 -53.99717,-51.19948 71.48083,-20.67782 -1.97825,-74.38526 65.166,35.92316 51.19949,-53.99717 20.67781,71.48084 74.38523,-1.97826 -35.92313,65.166 z"
       transform="matrix(0.22049488,0,0,0.09135326,752.03302,-7.2837458)" />
    <g
       id="g6087"
       transform="translate(1045.3309,102.72945)">
      <g
         id="g6102">
        <path
           transform="matrix(0.74357247,0,0,0.3080696,-917.35065,94.049549)"
           d="m 1038.4368,661.88417 -65.83018,12.01082 22.43654,63.04348 -61.87345,-25.48636 -15.20905,65.16566 -38.27229,-54.8918 -48.02588,46.59821 -2.51996,-66.86948 -65.59483,13.23615 34.03245,-57.61658 -62.33789,-24.32828 59.77979,-30.07082 -39.28911,-54.16867 66.54748,7.02221 -3.76632,-66.81087 52.18681,41.88574 32.95226,-58.2411 21.25719,63.45084 59.20873,-31.1802 -16.42143,64.87076 66.66684,5.7802 -48.88636,45.69466 z"
           inkscape:randomized="0"
           inkscape:rounded="0"
           inkscape:flatsided="false"
           sodipodi:arg2="0.52420865"
           sodipodi:arg1="0.23860932"
           sodipodi:r2="96.650558"
           sodipodi:r1="153.86185"
           sodipodi:cy="625.51868"
           sodipodi:cx="888.93427"
           sodipodi:sides="11"
           id="path6077"
           style="fill:#ffffff;stroke:#0000ff;stroke-width:2.99924159;stroke-linejoin:bevel;stroke-miterlimit:4;stroke-opacity:1;stroke-dasharray:none;stroke-dashoffset:0"
           sodipodi:type="star" />
        <flowRoot
           transform="translate(-396.88243,189.84472)"
           style="font-size:40px;font-style:normal;font-weight:normal;text-align:center;line-height:125%;letter-spacing:0px;word-spacing:0px;text-anchor:middle;fill:#000000;fill-opacity:1;stroke:none;font-family:Sans"
           id="flowRoot6069"
           xml:space="preserve"><flowRegion
             id="flowRegion6071"><rect
               y="83.790756"
               x="77.14286"
               height="114.28571"
               width="122.85716"
               id="rect6073"
               style="text-align:center;text-anchor:middle" /></flowRegion><flowPara
             style="font-size:20px;font-style:normal;font-variant:normal;font-weight:normal;font-stretch:normal;text-align:center;text-anchor:middle;fill:#0000ff;font-family:OSP_Le-patin-helvete;-inkscape-font-specification:OSP_Le-patin-helvete"
             id="flowPara6075">CONFLICT</flowPara></flowRoot>      </g>
    </g>
    <flowRoot
       transform="translate(716.15433,387.71128)"
       style="font-size:40px;font-style:normal;font-weight:normal;text-align:start;line-height:125%;letter-spacing:0px;word-spacing:0px;text-anchor:start;fill:#000000;fill-opacity:1;stroke:none;font-family:Sans"
       id="flowRoot6079"
       xml:space="preserve"><flowRegion
         id="flowRegion6081"><rect
           style="text-align:start;text-anchor:start"
           y="83.790756"
           x="77.14286"
           height="531.40906"
           width="212.8869"
           id="rect6083" /></flowRegion><flowPara
         style="font-size:20px;font-style:normal;font-variant:normal;font-weight:normal;font-stretch:normal;text-align:start;text-anchor:start;font-family:OSP_Le-patin-helvete;-inkscape-font-specification:OSP_Le-patin-helvete"
         id="flowPara3267">If git says “Merge conflict in &lt;filename&gt; Automatic merge failed…” it means that several persons modified the same lines of code.</flowPara><flowPara
         style="font-size:20px;font-style:normal;font-variant:normal;font-weight:normal;font-stretch:normal;text-align:start;text-anchor:start;font-family:OSP_Le-patin-helvete;-inkscape-font-specification:OSP_Le-patin-helvete"
         id="flowPara6094">The conflict must then be solved “by hand”, and then you can try again adding, committing, pushing! </flowPara></flowRoot>    <g
       id="g6109"
       transform="translate(497.92182,-363.37497)">
      <path
         transform="matrix(0.74357247,0,0,0.3080696,365.54308,33.440396)"
         d="m 1038.4368,661.88417 -65.83018,12.01082 22.43654,63.04348 -61.87345,-25.48636 -15.20905,65.16566 -38.27229,-54.8918 -48.02588,46.59821 -2.51996,-66.86948 -65.59483,13.23615 34.03245,-57.61658 -62.33789,-24.32828 59.77979,-30.07082 -39.28911,-54.16867 66.54748,7.02221 -3.76632,-66.81087 52.18681,41.88574 32.95226,-58.2411 21.25719,63.45084 59.20873,-31.1802 -16.42143,64.87076 66.66684,5.7802 -48.88636,45.69466 z"
         inkscape:randomized="0"
         inkscape:rounded="0"
         inkscape:flatsided="false"
         sodipodi:arg2="0.52420865"
         sodipodi:arg1="0.23860932"
         sodipodi:r2="96.650558"
         sodipodi:r1="153.86185"
         sodipodi:cy="625.51868"
         sodipodi:cx="888.93427"
         sodipodi:sides="11"
         id="path6048"
         style="fill:#ffffff;stroke:#0000ff;stroke-width:2.99924159;stroke-linejoin:bevel;stroke-miterlimit:4;stroke-opacity:1;stroke-dasharray:none;stroke-dashoffset:0"
         sodipodi:type="star" />
      <flowRoot
         transform="translate(886.0113,129.23557)"
         style="font-size:40px;font-style:normal;font-weight:normal;text-align:center;line-height:125%;letter-spacing:0px;word-spacing:0px;text-anchor:middle;fill:#000000;fill-opacity:1;stroke:none;font-family:Sans"
         id="flowRoot6028"
         xml:space="preserve"><flowRegion
           id="flowRegion6030"><rect
             y="83.790756"
             x="77.14286"
             height="114.28571"
             width="122.85716"
             id="rect6032"
             style="text-align:center;text-anchor:middle" /></flowRegion><flowPara
           style="font-size:20px;font-style:normal;font-variant:normal;font-weight:normal;font-stretch:normal;text-align:center;text-anchor:middle;fill:#0000ff;font-family:OSP_Le-patin-helvete;-inkscape-font-specification:OSP_Le-patin-helvete"
           id="flowPara6038">CONFLICT</flowPara></flowRoot>    </g>
    <flowRoot
       transform="translate(478.42765,-970.04798)"
       style="font-size:40px;font-style:normal;font-weight:normal;text-align:center;line-height:125%;letter-spacing:0px;word-spacing:0px;text-anchor:middle;fill:#b3b3b3;fill-opacity:1;stroke:none;font-family:Sans"
       id="flowRoot6145"
       xml:space="preserve"><flowRegion
         id="flowRegion6147"><rect
           style="text-align:center;text-anchor:middle;fill:#b3b3b3"
           y="83.790756"
           x="77.14286"
           height="182.83765"
           width="641.45837"
           id="rect6149" /></flowRegion><flowPara
         style="font-size:20px;font-style:normal;font-variant:normal;font-weight:normal;font-stretch:normal;text-align:start;text-anchor:start;fill:#b3b3b3;font-family:OSP_Le-patin-helvete;-inkscape-font-specification:OSP_Le-patin-helvete"
         id="flowPara3290">Don’t hesitate to make your own contribution to this scheme using git! http://git.constantvzw.org/?p=relearn.cheat-sheet.git</flowPara><flowPara
         style="font-size:20px;font-style:normal;font-variant:normal;font-weight:normal;font-stretch:normal;text-align:start;text-anchor:start;fill:#b3b3b3;font-family:OSP_Le-patin-helvete;-inkscape-font-specification:OSP_Le-patin-helvete"
         id="flowPara3247">And add your name in the upper-left corner.</flowPara><flowPara
         style="font-size:20px;font-style:normal;font-variant:normal;font-weight:normal;font-stretch:normal;text-align:start;text-anchor:start;fill:#b3b3b3;font-family:OSP_Le-patin-helvete;-inkscape-font-specification:OSP_Le-patin-helvete"
         id="flowPara3240">The typeface used here is Le Patin Helvète by OSP</flowPara><flowPara
         style="font-size:20px;font-style:normal;font-variant:normal;font-weight:normal;font-stretch:normal;text-align:start;text-anchor:start;fill:#b3b3b3;font-family:OSP_Le-patin-helvete;-inkscape-font-specification:OSP_Le-patin-helvete"
         id="flowPara3251">You can find it here :</flowPara><flowPara
         style="font-size:20px;font-style:normal;font-variant:normal;font-weight:normal;font-stretch:normal;text-align:start;text-anchor:start;fill:#b3b3b3;font-family:OSP_Le-patin-helvete;-inkscape-font-specification:OSP_Le-patin-helvete"
         id="flowPara3236">http://ospublish.constantvzw.org/foundry/le-patin-helvete/</flowPara></flowRoot>    <text
       xml:space="preserve"
       style="font-size:40px;font-style:normal;font-weight:normal;line-height:125%;letter-spacing:0px;word-spacing:0px;fill:#000000;fill-opacity:1;stroke:none;font-family:Sans"
       x="1190"
       y="366.15295"
       id="text3253"
       sodipodi:linespacing="125%"
       transform="translate(0,-1052.3623)"><tspan
         sodipodi:role="line"
         id="tspan3255"
         x="1190"
         y="366.15295" /></text>
    <path
       sodipodi:nodetypes="czc"
       inkscape:connector-curvature="0"
       id="path3257"
       d="m 1330.8643,-155.16028 c 0,0 49.2724,6.33147 98.061,-28.17582 48.7886,-34.50728 196.0282,-242.83559 241.993,-288.31985"
       style="opacity:0.15;fill:none;stroke:#000000;stroke-width:3;stroke-linecap:butt;stroke-linejoin:miter;stroke-miterlimit:4;stroke-opacity:1;stroke-dasharray:18, 18;stroke-dashoffset:0" />
    <path
       style="fill:none;stroke:#000000;stroke-width:2;stroke-linecap:butt;stroke-linejoin:miter;stroke-miterlimit:4;stroke-opacity:1;stroke-dasharray:16, 8;stroke-dashoffset:0;marker-end:url(#TriangleOutL)"
       d="m 1326.3092,-157.48772 0.8484,2.55572"
       id="path3259"
       inkscape:connector-curvature="0"
       sodipodi:nodetypes="cc" />
    <flowRoot
       xml:space="preserve"
       id="flowRoot4067"
       style="font-size:40px;font-style:normal;font-weight:normal;text-align:start;line-height:125%;letter-spacing:0px;word-spacing:0px;text-anchor:start;fill:#000000;fill-opacity:1;stroke:none;font-family:Sans"
       transform="translate(2011.554,-597.48527)"><flowRegion
         id="flowRegion4069"><rect
           id="rect4071"
           width="220.02974"
           height="385.69479"
           x="77.14286"
           y="83.790756"
           style="text-align:start;text-anchor:start" /></flowRegion><flowPara
         id="flowPara4077"
         style="font-size:20px;font-style:normal;font-variant:normal;font-weight:normal;font-stretch:normal;text-align:start;text-anchor:start;font-family:OSP_Le-patin-helvete;-inkscape-font-specification:OSP_Le-patin-helvete" /></flowRoot>    <flowRoot
       transform="translate(1540.2282,-681.18946)"
       style="font-size:40px;font-style:normal;font-weight:normal;text-align:start;line-height:125%;letter-spacing:0px;word-spacing:0px;text-anchor:start;fill:#000000;fill-opacity:1;stroke:none;font-family:Sans"
       id="flowRoot4155"
       xml:space="preserve"><flowRegion
         id="flowRegion4157"><rect
           style="text-align:start;text-anchor:start"
           y="83.790756"
           x="77.14286"
           height="385.69479"
           width="220.02974"
           id="rect4159" /></flowRegion><flowPara
         id="flowPara4161"
         style="font-size:20px;font-style:normal;font-variant:normal;font-weight:normal;font-stretch:normal;text-align:start;text-anchor:start;font-family:OSP_Le-patin-helvete;-inkscape-font-specification:OSP_Le-patin-helvete">Other persons can push their own modifications to the server repository.</flowPara></flowRoot>    <flowRoot
       transform="translate(480.40997,649.29917)"
       style="font-size:40px;font-style:normal;font-weight:normal;text-align:start;line-height:125%;letter-spacing:0px;word-spacing:0px;text-anchor:start;fill:#000000;fill-opacity:1;stroke:none;font-family:Sans"
       id="flowRoot3279"
       xml:space="preserve"><flowRegion
         id="flowRegion3281"><rect
           style="text-align:start;text-anchor:start;fill:#000000"
           y="83.076469"
           x="74.285713"
           height="200.45839"
           width="179.64731"
           id="rect3283" /></flowRegion><flowPara
         id="flowPara3285"
         style="font-size:14px;font-style:normal;font-variant:normal;font-weight:normal;font-stretch:normal;text-align:justify;text-anchor:start;fill:#b3b3b3;fill-opacity:1;font-family:OSP_Le-patin-helvete;-inkscape-font-specification:OSP_Le-patin-helvete">The great git scheme is released under Free Art License and was initiated during Relearn Summer School 2013 at Variable, Brussels. </flowPara><flowPara
         style="font-size:14px;font-style:normal;font-variant:normal;font-weight:normal;font-stretch:normal;text-align:justify;text-anchor:start;fill:#b3b3b3;fill-opacity:1;font-family:OSP_Le-patin-helvete;-inkscape-font-specification:OSP_Le-patin-helvete"
         id="flowPara3293">see : http://relearn.be/</flowPara><flowPara
         id="flowPara3287"
         style="font-size:14px;font-style:normal;font-variant:normal;font-weight:normal;font-stretch:normal;text-align:justify;text-anchor:start;fill:#b3b3b3;fill-opacity:1;font-family:OSP_Le-patin-helvete;-inkscape-font-specification:OSP_Le-patin-helvete">It was made on Inkscape by Loraine Furter, Eric Schrijver, … </flowPara><flowPara
         style="font-size:14px;font-style:normal;font-variant:normal;font-weight:normal;font-stretch:normal;text-align:justify;text-anchor:start;fill:#b3b3b3;fill-opacity:1;font-family:OSP_Le-patin-helvete;-inkscape-font-specification:OSP_Le-patin-helvete"
         id="flowPara3295">[to be completed]</flowPara><flowPara
         id="flowPara3291"
         style="font-size:20px;font-style:normal;font-variant:normal;font-weight:normal;font-stretch:normal;text-align:justify;text-anchor:start;fill:#b3b3b3;fill-opacity:1;font-family:OSP_Le-patin-helvete;-inkscape-font-specification:OSP_Le-patin-helvete" /></flowRoot>    <flowRoot
       xml:space="preserve"
       id="flowRoot3271"
       style="font-size:20px;font-style:normal;font-variant:normal;font-weight:500;font-stretch:normal;line-height:125%;letter-spacing:0px;word-spacing:0px;fill:#000000;fill-opacity:1;stroke:none;font-family:Gotham HTF;-inkscape-font-specification:Gotham HTF Medium"><flowRegion
         id="flowRegion3273"><rect
           id="rect3275"
           width="137.14285"
           height="111.42857"
           x="1660"
           y="563.29138" /></flowRegion><flowPara
         id="flowPara3277"></flowPara></flowRoot>  </g>
</svg>
